NOTA 3,55


==================================
1.
5.0
BUEN TRABAJO!!
==================================
2.

3.0
- No calcula de manera correcta la aceleración de la cuña
 

==================================
3.
----------------------------------
p1
0
- No encuentro la solución de exp(-x)
----------------------------------
p2
4.5
- ¿Cuál es la solución de los dos plots?

==================================
4.
5
- BUEN TRABAJO!!