NOTA 4,25



==================================
1.
5.0
BUEN TRABAJO!!
==================================
2.

4
- No guarda el plot
FileNotFoundError: [Errno 2] No such file or directory: 'Mecanica/Trayectoria.png'

- No me imprime los valores que se esta pidiendo

==================================
3.
----------------------------------
p1

3
- No guarda el plot
FileNotFoundError: [Errno 2] No such file or directory: 'Diferenciales/Grafica31.png'
- NO veo la diferencia entre Euler y Analítica
----------------------------------
p2

4,5
- El plot se ve bien, no se pude validar
- Nuevamente no executa
FileNotFoundError: [Errno 2] No such file or directory: 'Diferenciales/DesplazamientoAngular.jpg'
==================================
4.
5
- BUEN TRABAJO!!