NOTA 3,8



==================================
1.
5.0
BUEN TRABAJO!!
==================================
2.

4,5
- Muy buen trabajo 
-Solamente retorna un valor y no me da informacion a que se refiere
- NO me da informacion de los valores calculados 


==================================
3.
----------------------------------
p1
4
- ingreso exp(x) y me dice 
Revise que los parámetros de entrada cumplan con las condiciones establecidas
----------------------------------
p2
2
- No tengo el plot de la salida

==================================
4.
5
- BUEN TRABAJO!!